[
  {
    "name": "Ambusher",
    "desc": "The creature has advantage on attack rolls against any creature it has surprised.",
    "effect": { "attack": 1 }
  },
  {
    "name": "Amorphous",
    "desc": "The creature can move through a space as narrow as 1 inch wide without squeezing."
  },
  {
    "name": "Amphibious",
    "desc": "The creature can breathe air and water."
  },
  {
    "name": "Assassinate",
    "desc": "During it’s first turn, the creature has advantage on attack rolls against any target that hasn’t taken a turn. Any hit the creature scores against a surprised target is a critical hit.",
    "effect": {"attack": 1}
  },
  {
    "name": "Brave",
    "desc": "The creature has advantage on saving throws against being frightened."
  },
  {
    "name": "Cunning Action",
    "desc": "On each of its turns, the creature can use a bonus action to take the Dash, Disengage, or Hide action.",
    "effect": {"ac": 4, "attack": 4}
  },
  {
    "name": "Dark Devotion",
    "desc": "The creature has advantage on saving throws against being charmed or frightened."
  },
  {
    "name": "Keen Hearing and Sight",
    "desc": "The creature has advantage on Wisdom (Perception) checks that rely on hearing or sight."
  },
  {
    "name": "Keen Hearing",
    "desc": "The creature has advantage on Wisdom (Perception) checks that rely on hearing."
  },
  {
    "name": "Keen Sight",
    "desc": "The creature has advantage on Wisdom (Perception) checks that rely on sight."
  },
  {
    "name": "Keen Smell",
    "desc": "The creature has advantage on Wisdom (Perception) checks that rely on smell."
  },
  {
    "name": "Magic Resistance",
    "desc": "The creature has advantage on saving throws against spells and other magical effects.",
    "effect": {"ac": 2}
  },
  {
    "name": "Martial Advantage",
    "desc": "Once per turn, the creature can deal an extra 7 (2d6) damage to a target it hits with a weapon attack if that creature is within 5 feet of an ally of the creature that isn’t incapacitated.",
    "effect": {"damage": 7}
  },
  {
    "name": "Nimble Escape",
    "desc": "The creature can take the Disengage or Hide action as a bonus action on each of its turns.",
    "effect": { "ac": 4, "attack": 4 }
  },
  {
    "name": "Pack Tactics",
    "desc": "The creature has advantage on an attack roll against a target if at least one of the creature’s allies is within 5 feet of the creature and the ally isn’t incapacitated.",
    "effect": { "attack": "1" }
  },
  {
    "name": "Reckless",
    "desc": "At the start of its turn, the creature can gain advantage on all melee weapon attack rolls it makes during that turn, but attack rolls against it have advantage until the start of its next turn."
  },
  {
    "name": "Sneak Attack: 1/Turn",
    "desc": "The creature deals an extra 7 (2d6) damage when it hits a target with a weapon attack and has advantage on the attack roll, or when the target is within 5 feet of an ally of the creature that isn't incapacitated and the creature doesn’t have disadvantage on the attack roll.",
    "effect": {"damage": 7}
  },
  {
    "name": "Sneak Attack: 1/Turn",
    "desc": "The creature deals an extra 10 (3d6) damage when it hits a target with a weapon attack and has advantage on the attack roll, or when the target is within 5 feet of an ally of the creature that isn't incapacitated and the creature doesn’t have disadvantage on the attack roll.",
    "effect": {"damage": 10}
  }
]
